INFO    2021-06-17 16:44:18,975 [Thread-15] Fabrica.Factory  - Get: Dealer 2: Auto 397 (Body: 250 Motor: 346 Accessory: 525)
INFO    2021-06-17 16:44:18,983 [Thread-13] Fabrica.Factory  - Get: Dealer 1: Auto 335 (Body: 820 Motor: 190 Accessory: 567)
INFO    2021-06-17 16:44:20,999 [Thread-14] Fabrica.Factory  - Get: Dealer 3: Auto 991 (Body: 357 Motor: 42 Accessory: 373)
INFO    2021-06-17 16:44:22,999 [Thread-13] Fabrica.Factory  - Get: Dealer 1: Auto 861 (Body: 391 Motor: 377 Accessory: 530)
INFO    2021-06-17 16:44:23,975 [Thread-15] Fabrica.Factory  - Get: Dealer 2: Auto 850 (Body: 292 Motor: 926 Accessory: 527)
INFO    2021-06-17 16:44:25,016 [Thread-14] Fabrica.Factory  - Get: Dealer 3: Auto 251 (Body: 98 Motor: 234 Accessory: 31)
INFO    2021-06-17 16:44:27,016 [Thread-13] Fabrica.Factory  - Get: Dealer 1: Auto 813 (Body: 650 Motor: 608 Accessory: 945)
INFO    2021-06-17 16:44:29,012 [Thread-15] Fabrica.Factory  - Get: Dealer 2: Auto 404 (Body: 332 Motor: 750 Accessory: 327)
INFO    2021-06-17 16:50:21,445 [Thread-15] Fabrica.Factory  - Get: Dealer 3: Auto 27 (Body: 492 Motor: 58 Accessory: 438)
INFO    2021-06-17 16:50:22,413 [Thread-13] Fabrica.Factory  - Get: Dealer 1: Auto 494 (Body: 390 Motor: 179 Accessory: 694)
INFO    2021-06-17 16:50:22,445 [Thread-14] Fabrica.Factory  - Get: Dealer 2: Auto 523 (Body: 403 Motor: 984 Accessory: 149)
INFO    2021-06-17 16:50:24,459 [Thread-15] Fabrica.Factory  - Get: Dealer 3: Auto 887 (Body: 897 Motor: 993 Accessory: 235)
INFO    2021-06-17 16:50:25,416 [Thread-13] Fabrica.Factory  - Get: Dealer 1: Auto 881 (Body: 551 Motor: 77 Accessory: 807)
INFO    2021-06-17 16:50:25,465 [Thread-14] Fabrica.Factory  - Get: Dealer 2: Auto 53 (Body: 196 Motor: 945 Accessory: 314)
INFO    2021-06-17 16:50:27,463 [Thread-15] Fabrica.Factory  - Get: Dealer 3: Auto 312 (Body: 320 Motor: 117 Accessory: 34)
INFO    2021-06-17 16:50:28,423 [Thread-13] Fabrica.Factory  - Get: Dealer 1: Auto 956 (Body: 402 Motor: 504 Accessory: 38)
INFO    2021-06-17 16:50:28,471 [Thread-14] Fabrica.Factory  - Get: Dealer 2: Auto 505 (Body: 728 Motor: 79 Accessory: 736)
INFO    2021-06-17 16:50:30,471 [Thread-15] Fabrica.Factory  - Get: Dealer 3: Auto 945 (Body: 263 Motor: 588 Accessory: 291)
INFO    2021-06-17 16:50:31,425 [Thread-13] Fabrica.Factory  - Get: Dealer 1: Auto 569 (Body: 304 Motor: 243 Accessory: 385)
INFO    2021-06-17 16:50:31,473 [Thread-14] Fabrica.Factory  - Get: Dealer 2: Auto 208 (Body: 145 Motor: 480 Accessory: 529)
INFO    2021-06-17 16:50:33,473 [Thread-15] Fabrica.Factory  - Get: Dealer 3: Auto 918 (Body: 225 Motor: 434 Accessory: 709)
INFO    2021-06-17 16:50:34,431 [Thread-13] Fabrica.Factory  - Get: Dealer 1: Auto 770 (Body: 997 Motor: 168 Accessory: 236)
INFO    2021-06-17 16:50:34,478 [Thread-14] Fabrica.Factory  - Get: Dealer 2: Auto 908 (Body: 909 Motor: 437 Accessory: 117)
INFO    2021-06-17 17:04:05,381 [Thread-13] Fabrica.Factory  - Get: Dealer 1: Auto 432 (Body: 572 Motor: 827 Accessory: 512)
INFO    2021-06-17 17:05:21,469 [Thread-15] Fabrica.Factory  - Get: Dealer 3: Auto 615 (Body: 211 Motor: 814 Accessory: 357)
INFO    2021-06-17 17:05:26,472 [Thread-14] Fabrica.Factory  - Get: Dealer 2: Auto 429 (Body: 596 Motor: 343 Accessory: 311)
INFO    2021-06-17 17:05:31,460 [Thread-13] Fabrica.Factory  - Get: Dealer 1: Auto 498 (Body: 309 Motor: 912 Accessory: 946)
INFO    2021-06-17 17:05:36,474 [Thread-15] Fabrica.Factory  - Get: Dealer 3: Auto 934 (Body: 75 Motor: 135 Accessory: 278)
INFO    2021-06-17 17:05:41,475 [Thread-14] Fabrica.Factory  - Get: Dealer 2: Auto 112 (Body: 592 Motor: 204 Accessory: 760)
INFO    2021-06-17 17:05:46,475 [Thread-13] Fabrica.Factory  - Get: Dealer 1: Auto 276 (Body: 180 Motor: 709 Accessory: 886)
INFO    2021-06-17 17:05:49,478 [Thread-13] Fabrica.Factory  - Get: Dealer 1: Auto 2 (Body: 53 Motor: 393 Accessory: 42)
INFO    2021-06-17 17:05:51,483 [Thread-15] Fabrica.Factory  - Get: Dealer 3: Auto 99 (Body: 108 Motor: 483 Accessory: 425)
INFO    2021-06-17 17:05:52,483 [Thread-13] Fabrica.Factory  - Get: Dealer 1: Auto 497 (Body: 863 Motor: 93 Accessory: 588)
INFO    2021-06-17 17:05:54,486 [Thread-15] Fabrica.Factory  - Get: Dealer 3: Auto 599 (Body: 436 Motor: 321 Accessory: 646)
INFO    2021-06-17 17:05:55,492 [Thread-13] Fabrica.Factory  - Get: Dealer 1: Auto 224 (Body: 277 Motor: 357 Accessory: 161)
INFO    2021-06-17 17:05:56,478 [Thread-14] Fabrica.Factory  - Get: Dealer 2: Auto 914 (Body: 713 Motor: 93 Accessory: 518)
INFO    2021-06-17 17:05:57,492 [Thread-15] Fabrica.Factory  - Get: Dealer 3: Auto 60 (Body: 725 Motor: 213 Accessory: 89)
INFO    2021-06-17 17:31:13,443 [Thread-14] Fabrica.Factory  - Get: Dealer 3: Auto 732 (Body: 400 Motor: 506 Accessory: 770)
INFO    2021-06-17 17:31:13,444 [Thread-13] Fabrica.Factory  - Get: Dealer 2: Auto 174 (Body: 961 Motor: 154 Accessory: 65)
INFO    2021-06-17 17:31:13,467 [Thread-15] Fabrica.Factory  - Get: Dealer 1: Auto 891 (Body: 173 Motor: 911 Accessory: 198)
INFO    2021-06-17 17:31:15,460 [Thread-13] Fabrica.Factory  - Get: Dealer 2: Auto 350 (Body: 530 Motor: 533 Accessory: 708)
INFO    2021-06-17 17:31:15,476 [Thread-14] Fabrica.Factory  - Get: Dealer 3: Auto 545 (Body: 305 Motor: 526 Accessory: 694)
INFO    2021-06-17 17:31:16,484 [Thread-15] Fabrica.Factory  - Get: Dealer 1: Auto 756 (Body: 504 Motor: 169 Accessory: 7)
INFO    2021-06-17 17:31:17,476 [Thread-13] Fabrica.Factory  - Get: Dealer 2: Auto 571 (Body: 153 Motor: 221 Accessory: 624)
INFO    2021-06-17 17:31:18,440 [Thread-14] Fabrica.Factory  - Get: Dealer 3: Auto 51 (Body: 182 Motor: 969 Accessory: 763)
INFO    2021-06-17 17:31:18,487 [Thread-15] Fabrica.Factory  - Get: Dealer 1: Auto 780 (Body: 890 Motor: 959 Accessory: 85)
INFO    2021-06-17 17:31:19,492 [Thread-13] Fabrica.Factory  - Get: Dealer 2: Auto 702 (Body: 211 Motor: 116 Accessory: 203)
INFO    2021-06-17 17:31:20,514 [Thread-14] Fabrica.Factory  - Get: Dealer 3: Auto 158 (Body: 644 Motor: 433 Accessory: 289)
INFO    2021-06-17 17:31:21,518 [Thread-15] Fabrica.Factory  - Get: Dealer 1: Auto 904 (Body: 193 Motor: 959 Accessory: 890)
INFO    2021-06-17 17:31:22,526 [Thread-13] Fabrica.Factory  - Get: Dealer 2: Auto 677 (Body: 580 Motor: 827 Accessory: 955)
INFO    2021-06-17 17:31:23,454 [Thread-14] Fabrica.Factory  - Get: Dealer 3: Auto 547 (Body: 751 Motor: 584 Accessory: 397)
INFO    2021-06-17 17:31:23,521 [Thread-15] Fabrica.Factory  - Get: Dealer 1: Auto 983 (Body: 795 Motor: 80 Accessory: 277)
INFO    2021-06-17 17:31:24,528 [Thread-13] Fabrica.Factory  - Get: Dealer 2: Auto 593 (Body: 729 Motor: 199 Accessory: 791)
INFO    2021-06-17 17:31:25,548 [Thread-14] Fabrica.Factory  - Get: Dealer 3: Auto 381 (Body: 441 Motor: 691 Accessory: 545)
INFO    2021-06-17 17:31:26,556 [Thread-15] Fabrica.Factory  - Get: Dealer 1: Auto 725 (Body: 75 Motor: 930 Accessory: 432)
INFO    2021-06-17 17:31:27,549 [Thread-13] Fabrica.Factory  - Get: Dealer 2: Auto 899 (Body: 291 Motor: 888 Accessory: 795)
INFO    2021-06-17 17:31:28,567 [Thread-15] Fabrica.Factory  - Get: Dealer 1: Auto 725 (Body: 252 Motor: 318 Accessory: 525)
INFO    2021-06-17 17:31:29,575 [Thread-14] Fabrica.Factory  - Get: Dealer 3: Auto 887 (Body: 311 Motor: 718 Accessory: 677)
INFO    2021-06-17 17:31:30,567 [Thread-13] Fabrica.Factory  - Get: Dealer 2: Auto 865 (Body: 657 Motor: 809 Accessory: 603)
INFO    2021-06-17 17:31:40,588 [Thread-15] Fabrica.Factory  - Get: Dealer 1: Auto 121 (Body: 7 Motor: 705 Accessory: 224)
INFO    2021-06-17 17:31:41,595 [Thread-14] Fabrica.Factory  - Get: Dealer 3: Auto 43 (Body: 593 Motor: 814 Accessory: 229)
INFO    2021-06-17 17:31:42,592 [Thread-13] Fabrica.Factory  - Get: Dealer 2: Auto 194 (Body: 933 Motor: 473 Accessory: 55)
INFO    2021-06-17 17:37:04,186 [Thread-15] Fabrica.Factory  - Get: Dealer 3: Auto 656 (Body: 922 Motor: 714 Accessory: 203)
INFO    2021-06-17 17:37:09,188 [Thread-13] Fabrica.Factory  - Get: Dealer 1: Auto 114 (Body: 588 Motor: 275 Accessory: 966)
INFO    2021-06-17 17:37:11,192 [Thread-14] Fabrica.Factory  - Get: Dealer 2: Auto 515 (Body: 200 Motor: 832 Accessory: 445)
INFO    2021-06-17 17:37:19,189 [Thread-15] Fabrica.Factory  - Get: Dealer 3: Auto 379 (Body: 281 Motor: 929 Accessory: 711)
INFO    2021-06-17 17:43:54,451 [Thread-13] Fabrica.Factory  - Get: Dealer 1: Auto 806 (Body: 644 Motor: 606 Accessory: 815)
INFO    2021-06-17 17:43:59,463 [Thread-14] Fabrica.Factory  - Get: Dealer 2: Auto 279 (Body: 91 Motor: 727 Accessory: 41)
INFO    2021-06-17 17:44:00,467 [Thread-15] Fabrica.Factory  - Get: Dealer 3: Auto 784 (Body: 893 Motor: 430 Accessory: 231)
INFO    2021-06-17 17:49:34,489 [Thread-15] Fabrica.Factory  - Get: Dealer 3: Auto 751 (Body: 180 Motor: 388 Accessory: 198)
INFO    2021-06-17 17:49:36,495 [Thread-15] Fabrica.Factory  - Get: Dealer 3: Auto 674 (Body: 482 Motor: 372 Accessory: 538)
INFO    2021-06-17 17:49:37,499 [Thread-14] Fabrica.Factory  - Get: Dealer 2: Auto 719 (Body: 195 Motor: 115 Accessory: 439)
INFO    2021-06-17 17:49:37,499 [Thread-13] Fabrica.Factory  - Get: Dealer 1: Auto 808 (Body: 551 Motor: 785 Accessory: 216)
INFO    2021-06-17 17:49:39,499 [Thread-15] Fabrica.Factory  - Get: Dealer 3: Auto 922 (Body: 818 Motor: 459 Accessory: 214)
INFO    2021-06-17 17:49:40,505 [Thread-14] Fabrica.Factory  - Get: Dealer 2: Auto 180 (Body: 772 Motor: 598 Accessory: 820)
INFO    2021-06-17 17:49:40,505 [Thread-13] Fabrica.Factory  - Get: Dealer 1: Auto 727 (Body: 692 Motor: 46 Accessory: 313)
INFO    2021-06-17 17:49:42,504 [Thread-15] Fabrica.Factory  - Get: Dealer 3: Auto 752 (Body: 78 Motor: 448 Accessory: 587)
INFO    2021-06-17 17:49:43,510 [Thread-14] Fabrica.Factory  - Get: Dealer 2: Auto 143 (Body: 584 Motor: 213 Accessory: 722)
INFO    2021-06-17 17:49:43,512 [Thread-13] Fabrica.Factory  - Get: Dealer 1: Auto 10 (Body: 193 Motor: 755 Accessory: 404)
INFO    2021-06-17 17:49:45,508 [Thread-15] Fabrica.Factory  - Get: Dealer 3: Auto 722 (Body: 867 Motor: 915 Accessory: 454)
INFO    2021-06-17 17:55:48,572 [Thread-15] Fabrica.Factory  - Get: Dealer 3: Auto 634 (Body: 545 Motor: 433 Accessory: 350)
INFO    2021-06-17 17:55:49,587 [Thread-13] Fabrica.Factory  - Get: Dealer 1: Auto 476 (Body: 486 Motor: 47 Accessory: 894)
INFO    2021-06-17 17:55:50,556 [Thread-14] Fabrica.Factory  - Get: Dealer 2: Auto 52 (Body: 250 Motor: 996 Accessory: 846)
INFO    2021-06-17 17:55:51,583 [Thread-15] Fabrica.Factory  - Get: Dealer 3: Auto 585 (Body: 851 Motor: 55 Accessory: 61)
INFO    2021-06-17 17:55:52,590 [Thread-13] Fabrica.Factory  - Get: Dealer 1: Auto 807 (Body: 955 Motor: 541 Accessory: 628)
INFO    2021-06-17 17:55:53,557 [Thread-14] Fabrica.Factory  - Get: Dealer 2: Auto 546 (Body: 464 Motor: 278 Accessory: 413)
INFO    2021-06-17 17:55:54,586 [Thread-15] Fabrica.Factory  - Get: Dealer 3: Auto 603 (Body: 366 Motor: 416 Accessory: 829)
INFO    2021-06-17 17:55:55,599 [Thread-13] Fabrica.Factory  - Get: Dealer 1: Auto 45 (Body: 450 Motor: 289 Accessory: 454)
INFO    2021-06-17 17:55:56,559 [Thread-14] Fabrica.Factory  - Get: Dealer 2: Auto 909 (Body: 806 Motor: 270 Accessory: 576)
INFO    2021-06-17 17:55:57,595 [Thread-15] Fabrica.Factory  - Get: Dealer 3: Auto 958 (Body: 642 Motor: 597 Accessory: 848)
